LIS 4317 Module 6
…
RaceDataDriver <- RaceData %>%
  filter(Driver == "Lewis Hamilton" | Driver == "Max Verstappen") %>%
  group_by(Year, Driver) %>% 
  mutate(avgDriverPts = mean(PTS),
         sdDriverPts = sd(PTS),
         DriverDev = (PTS - avgDriverPts)) %>%
  ungroup()

RaceDataDriver

## # A tibble: 77 x 10
##     Year Driver     `GRAND PRIX` DATE                CAR   `RACE POSITION`   PTS
##    <dbl> <chr>      <chr>        <dttm>              <chr> <chr>           <dbl>
##  1  2021 Lewis Ham~ Bahrain      2021-03-28 00:00:00 MERC~ 1                  25
##  2  2021 Lewis Ham~ Emilia Roma~ 2021-04-18 00:00:00 MERC~ 2                  19
##  3  2021 Lewis Ham~ Portugal     2021-05-02 00:00:00 MERC~ 1                  25
##  4  2021 Lewis Ham~ Spain        2021-05-09 00:00:00 MERC~ 1                  25
##  5  2021 Lewis Ham~ Monaco       2021-05-23 00:00:00 MERC~ 7                   7
##  6  2021 Lewis Ham~ Azerbaijan   2021-06-06 00:00:00 MERC~ 15                  0
##  7  2021 Lewis Ham~ France       2021-06-20 00:00:00 MERC~ 2                  18
##  8  2021 Lewis Ham~ Styria       2021-06-27 00:00:00 MERC~ 2                  19
##  9  2021 Lewis Ham~ Austria      2021-07-04 00:00:00 MERC~ 4                  12
## 10  2021 Lewis Ham~ Great Brita~ 2021-07-18 00:00:00 MERC~ 1                  27
## # ... with 67 more rows, and 3 more variables: avgDriverPts <dbl>,
## #   sdDriverPts <dbl>, DriverDev <dbl>

RaceDataCar <- RaceData %>%
  filter(CAR != "RACING POINT BWT MERCEDES") %>%
  group_by(Year, CAR) %>% 
  mutate(avgCarPts = mean(PTS),
          sdCarPts = sd(PTS),
         CarDev = (PTS - avgCarPts)) %>%
  ungroup()

RaceDataCar

## # A tibble: 155 x 10
##     Year Driver     `GRAND PRIX` DATE                CAR   `RACE POSITION`   PTS
##    <dbl> <chr>      <chr>        <dttm>              <chr> <chr>           <dbl>
##  1  2021 Lewis Ham~ Bahrain      2021-03-28 00:00:00 MERC~ 1                  25
##  2  2021 Lewis Ham~ Emilia Roma~ 2021-04-18 00:00:00 MERC~ 2                  19
##  3  2021 Lewis Ham~ Portugal     2021-05-02 00:00:00 MERC~ 1                  25
##  4  2021 Lewis Ham~ Spain        2021-05-09 00:00:00 MERC~ 1                  25
##  5  2021 Lewis Ham~ Monaco       2021-05-23 00:00:00 MERC~ 7                   7
##  6  2021 Lewis Ham~ Azerbaijan   2021-06-06 00:00:00 MERC~ 15                  0
##  7  2021 Lewis Ham~ France       2021-06-20 00:00:00 MERC~ 2                  18
##  8  2021 Lewis Ham~ Styria       2021-06-27 00:00:00 MERC~ 2                  19
##  9  2021 Lewis Ham~ Austria      2021-07-04 00:00:00 MERC~ 4                  12
## 10  2021 Lewis Ham~ Great Brita~ 2021-07-18 00:00:00 MERC~ 1                  27
## # ... with 145 more rows, and 3 more variables: avgCarPts <dbl>,
## #   sdCarPts <dbl>, CarDev <dbl>
…
